<?xml version='1.0'?>
<robot name="jetbot" xmlns:xacro="http://www.ros.org/wiki/xacro">
    <!-- include macros -->
    <xacro:include filename="$(find adapa_ros)/gazebo_media/models/jetbot/model.macros.xacro" />

    <!-- include robot components -->
    <xacro:include filename="$(find adapa_ros)/gazebo_media/models/jetbot/model.components.xacro" />

    <!-- include gazebo settings -->
    <xacro:include filename="$(find adapa_ros)/gazebo_media/models/jetbot/model.gazebo.xacro" />
</robot>
